…
    ## Parsed with column specification:
    ## cols(
    ##   iso3 = col_character(),
    ##   year = col_double(),
    ##   hiv_pct_15_to_49 = col_double(),
    ##   hiv_pct_15_to_24_female = col_double(),
    ##   hiv_pct_15_to_24_male = col_double()
    ## )

# Country Report: Kenya

For which years do we have data for Kenya?

    ## # A tibble: 29 x 1
    ##     year
    ##    <dbl>
    ##  1  1990
    ##  2  1991
    ##  3  1992
    ##  4  1993
    ##  5  1994
    ##  6  1995
    ##  7  1996
    ##  8  1997
    ##  9  1998
    ## 10  1999
    ## # … with 19 more rows
…
